0 52 122
1 199 130
2 165 23
3 146 31
4 51 33
5 42 23
6 30 31
7 50 64
8 28 20
9 88 20
10 99 92
11 25 28
12 22 21
13 173 21
14 181 151
15 155 21
16 23 29
17 26 94
18 21 183
19 174 108
20 21 15
21 16 31
22 32 19
23 28 13
24 51 97
25 168 114
26 94 20
27 31 154
28 22 108
29 65 143
30 177 36 26 25
31 118 29
32 190 28 155 65
33 80 25
34 21 24
35 196 117
36 133 31
37 73 177
38 163 31
39 52 160
40 164 21
41 29 25 28 22
42 111 73
43 31 145
44 20 22
45 27 41 102 177
46 167 51
47 27 99 140
48 118 66
49 49 104
50 23 22
51 62 92
52 189 109
53 141 48
54 20 136
55 130 23
56 29 150
57 21 26
58 100 171
59 22 23
60 154 57
61 59 31
62 112 193
63 65 20
64 64 109
65 83 130
66 176 174
67 30 49
68 45 117
69 26 127
70 25 68
71 105 31
72 64 123
73 125 171
74 29 31
75 24 92
76 45 81
77 25 27
78 26 126
79 199 22
80 108 99
81 57 167
82 177 32
83 87 22
84 90 125
85 28 60
86 29 97
87 149 23
88 93 29
89 30 118
90 25 188
91 21 184
92 196 73
93 37 55
94 21 29
95 123 183
96 133 147
97 146 151
98 139 28
99 192 28
100 25 21
101 156 30
102 117 26
103 117 26 31 32
104 169 25
105 22 85
106 151 119
107 20 70
108 160 23
109 37 93
110 22 23
111 25 136
112 136 29
113 27 176 179 96
114 30 25
115 161 152
116 21 36
117 58 31
118 124 22 86
119 28 24
120 25 26
121 21 187
122 152 129
123 98 28
124 28 116
125 178 23
126 29 104
127 148 99
128 54 59
129 27 181
130 68 133
131 22 21
132 27 58
133 90 80
134 25 126
135 94 84
136 27 28
137 25 196
138 28 35 36 98
139 74 49 30
140 30 145 23
141 199 28 103
142 175 92 27 22
143 120 22
144 22 185
145 65 66
146 85 119
147 141 136
148 111 166
149 29 164
150 22 117 193 99
151 15 0
152 14 12
153 65 1
154 2 3
155 30 31 12 4
156 10 13
157 16 10
158 37 17
159 5 31
160 16 6
161 13 7 8 19
162 43 94
163 9 10
164 96 18
165 18 31
166 97 18
167 0 1
168 97 52
169 2 16
170 17 3
171 4 5
172 6 7
173 8 9
174 17 57
175 13 24
176 26 14
177 18 11
178 69 29
179 27 15
180 30 20
181 99 120
182 181 58
183 55 20
184 26 149
185 107 25
186 174 36
187 137 150
188 165 29
189 134 54
190 86 104
191 163 21
192 129 138
193 20 185
194 151 66
195 166 29
196 69 20
197 28 57
198 76 52
199 24 51 63 22